{
  "connection": "default",
  "collectionName": "components_url_sources",
  "info": {
    "name": "Source",
    "icon": "link"
  },
  "options": {},
  "attributes": {
    "slug": {
      "type": "string"
    },
    "url": {
      "type": "string"
    },
    "provider": {
      "model": "provider"
    }
  }
}
