{
  "connection": "default",
  "collectionName": "components_url_urls",
  "info": {
    "name": "urls",
    "icon": "anchor"
  },
  "options": {},
  "attributes": {
    "type": {
      "type": "string"
    },
    "pattern": {
      "type": "string"
    }
  }
}
