{
  "connection": "default",
  "collectionName": "blogs",
  "info": {
    "name": "Blog"
  },
  "options": {
    "increments": true,
    "timestamps": true
  },
  "attributes": {
    "title": {
      "type": "string"
    },
    "date": {
      "type": "datetime"
    },
    "image": {
      "model": "file",
      "via": "related",
      "plugin": "upload",
      "required": false
    },
    "body": {
      "type": "richtext"
    },
    "authors": {
      "plugin": "users-permissions",
      "collection": "user",
      "via": "blogs",
      "dominant": true
    },
    "tags": {
      "collection": "tag",
      "via": "blogs",
      "dominant": true
    }
  }
}
