{
  "connection": "default",
  "collectionName": "contents",
  "info": {
    "name": "Content"
  },
  "options": {
    "increments": true,
    "timestamps": true
  },
  "attributes": {
    "name": {
      "type": "string"
    },
    "description": {
      "type": "richtext"
    },
    "published_at": {
      "type": "datetime"
    },
    "channels": {
      "via": "contents",
      "collection": "channel"
    },
    "image": {
      "model": "file",
      "via": "related",
      "plugin": "upload",
      "required": false
    },
    "sources": {
      "type": "component",
      "repeatable": true,
      "component": "provider.sources"
    },
    "slug": {
      "type": "string"
    }
  }
}
