{
  "defaultConnection": "default",
  "connections": {
    "default": {
      "connector": "bookshelf",
      "settings": {
        "client": "postgres",
        "database": "breadtube_api",
        "host": "127.0.0.1",
        "port": 5432,
        "username": "postgres",
        "password": ""
      },
      "options": {}
    }
  }
}
